digraph Tree {
node [shape=box] ;
0 [label="X[0] <= 0.003\ngini = 0.49\nsamples = 100\nvalue = [43, 57]"] ;
1 [label="gini = 0.456\nsamples = 54\nvalue = [35, 19]"] ;
0 -> 1 [labeldistance=2.5, labelangle=45, headlabel="True"] ;
2 [label="X[0] <= 0.124\ngini = 0.287\nsamples = 46\nvalue = [8, 38]"] ;
0 -> 2 [labeldistance=2.5, labelangle=-45, headlabel="False"] ;
3 [label="X[0] <= 0.062\ngini = 0.136\nsamples = 41\nvalue = [3, 38]"] ;
2 -> 3 ;
4 [label="gini = 0.0\nsamples = 30\nvalue = [0, 30]"] ;
3 -> 4 ;
5 [label="X[0] <= 0.065\ngini = 0.397\nsamples = 11\nvalue = [3, 8]"] ;
3 -> 5 ;
6 [label="gini = 0.0\nsamples = 1\nvalue = [1, 0]"] ;
5 -> 6 ;
7 [label="X[0] <= 0.102\ngini = 0.32\nsamples = 10\nvalue = [2, 8]"] ;
5 -> 7 ;
8 [label="X[0] <= 0.086\ngini = 0.444\nsamples = 6\nvalue = [2, 4]"] ;
7 -> 8 ;
9 [label="X[0] <= 0.068\ngini = 0.32\nsamples = 5\nvalue = [1, 4]"] ;
8 -> 9 ;
10 [label="gini = 0.0\nsamples = 2\nvalue = [0, 2]"] ;
9 -> 10 ;
11 [label="X[0] <= 0.072\ngini = 0.444\nsamples = 3\nvalue = [1, 2]"] ;
9 -> 11 ;
12 [label="gini = 0.0\nsamples = 1\nvalue = [1, 0]"] ;
11 -> 12 ;
13 [label="gini = 0.0\nsamples = 2\nvalue = [0, 2]"] ;
11 -> 13 ;
14 [label="gini = 0.0\nsamples = 1\nvalue = [1, 0]"] ;
8 -> 14 ;
15 [label="gini = 0.0\nsamples = 4\nvalue = [0, 4]"] ;
7 -> 15 ;
16 [label="gini = 0.0\nsamples = 5\nvalue = [5, 0]"] ;
2 -> 16 ;
}